module github.com/dtapps/go-redis

go 1.17

require (
	github.com/bitly/go-simplejson v0.5.0
	github.com/go-redis/redis/v8 v8.11.0
)

require (
	github.com/bmizerany/assert v0.0.0-20160611221934-b7ed37b82869 // indirect
	github.com/cespare/xxhash/v2 v2.1.1 // indirect
	github.com/dgryski/go-rendezvous v0.0.0-20200823014737-9f7001d12a5f // indirect
	github.com/kr/pretty v0.2.1 // indirect
)
